{
  "Cancel": {
    "message": "取消"
  },
  "CaptureAllTabs": {
    "message": "擷取所有分頁"
  },
  "CaptureFrame": {
    "message": "擷取框架頁"
  },
  "CaptureFrameBookmark": {
    "message": "擷取框架頁 (書籤)"
  },
  "CaptureFrameSource": {
    "message": "擷取框架頁 (原貌)"
  },
  "CaptureLinkBookmark": {
    "message": "擷取連結頁面 (書籤)"
  },
  "CaptureLinkSource": {
    "message": "擷取連結頁面 (原貌)"
  },
  "CaptureMedia": {
    "message": "擷取多媒體"
  },
  "CapturePage": {
    "message": "擷取頁面"
  },
  "CapturePageBookmark": {
    "message": "擷取頁面 (書籤)"
  },
  "CapturePageSource": {
    "message": "擷取頁面 (原貌)"
  },
  "CaptureSelection": {
    "message": "擷取選取範圍"
  },
  "CaptureTab": {
    "message": "擷取分頁"
  },
  "CaptureTabBookmark": {
    "message": "擷取分頁 (書籤)"
  },
  "CaptureTabBookmarkTooltip": {
    "message": "將選取的分頁擷取為書籤網頁，瀏覽書籤網頁會導向至原始頁面。"
  },
  "CaptureTabSource": {
    "message": "擷取分頁 (原貌)"
  },
  "CaptureTabSourceTooltip": {
    "message": "擷取選取的分頁的原始狀態（未經過腳本處理）。"
  },
  "CaptureTabTooltip": {
    "message": "擷取選取的分頁的目前狀態。若分頁中有選取內容則只擷取選取範圍。"
  },
  "CapturerTitle": {
    "message": "擷取頁面"
  },
  "EditConfirmScriptedDocument": {
    "message": "此頁面含有腳本，實際內容可能已變更，重新儲存可能造成不可逆的資訊遺失。要繼續編輯嗎？"
  },
  "EditTab": {
    "message": "編輯分頁"
  },
  "ErrorContentScriptExecute": {
    "message": "無法執行內容處理腳本 ($SOURCE$): $REASON$",
    "placeholders": {
      "source": {
        "content": "$1"
      },
      "reason": {
        "content": "$2"
      }
    }
  },
  "ErrorFileDownloadError": {
    "message": "下載檔案錯誤 ($URL$): $REASON$",
    "placeholders": {
      "url": {
        "content": "$1"
      },
      "reason": {
        "content": "$2"
      }
    }
  },
  "ErrorImportOptions": {
    "message": "匯入選項失敗: $REASON$",
    "placeholders": {
      "reason": {
        "content": "$1"
      }
    }
  },
  "ErrorLocateNotFound": {
    "message": "找不到本頁面所屬的剪貼簿項目。"
  },
  "ErrorLocateSidebarNotOpened": {
    "message": "剪貼簿尚未開啟，無法執行定位。"
  },
  "ErrorSaveBookNoTree": {
    "message": "剪貼簿停用了資料樹功能。"
  },
  "ErrorSaveNonHtml": {
    "message": "無法儲存非 HTML 檔案 ($URL$)。",
    "placeholders": {
      "url": {
        "content": "$1"
      }
    }
  },
  "ErrorSaveNonUTF8": {
    "message": "無法儲存非 UTF-8 編碼的檔案 ($URL$)。",
    "placeholders": {
      "url": {
        "content": "$1"
      }
    }
  },
  "ErrorSaveNotUnderDataDir": {
    "message": "無法儲存非資料目錄下的檔案 ($URL$)。",
    "placeholders": {
      "url": {
        "content": "$1"
      }
    }
  },
  "ErrorSaveUnknownItem": {
    "message": "找不到此頁面的所屬項目。"
  },
  "ErrorSaveUploadFailure": {
    "message": "無法上傳至後端伺服器 ($SOURCE$): $REASON$",
    "placeholders": {
      "source": {
        "content": "$1"
      },
      "reason": {
        "content": "$2"
      }
    }
  },
  "ErrorTabDiscarded": {
    "message": "分頁已卸載，請重新載入再嘗試。"
  },
  "ExtensionDescription": {
    "description": "Description of the extension as it's visible to the outside world",
    "message": "忠實地擷取網頁內容，提供多種儲存格式與客製化設定。"
  },
  "ExtensionName": {
    "description": "Name of the extension as it's visible to the outside world",
    "message": "網頁剪貼簿"
  },
  "IndexerDesc": {
    "message": "指定剪貼簿資料夾後即會開始建立索引，並打包成 ZIP 壓縮檔供下載，將其內容解壓縮放入原剪貼簿資料夾，並開啟產生的 map.html 或 frame.html，即可檢視產生的頁面列表。\n\n* 擷取新頁面或修改資料檔後可再次執行此索引器以加入新項目或檢查潛在錯誤，之後重新整理 map.html 或 frame.html 即可檢視更新結果。\n\n* 索引器相關選項可到選項頁面設定。"
  },
  "IndexerHeader": {
    "message": "選擇網頁剪貼簿資料夾或其 ZIP 壓縮檔。你可以拖放它們至此頁，或使用以下按鈕："
  },
  "IndexerLoadServer": {
    "message": "索引伺服器資料"
  },
  "IndexerPickDir": {
    "message": "選擇資料夾"
  },
  "IndexerPickDirTooltip": {
    "message": "用此方式選擇資料夾時，若根目錄下只有單一資料夾，會無法正確辨識根目錄。用拖放方式選擇資料夾或在根目錄下增加檔案或含有檔案的資料夾可避免此問題。"
  },
  "IndexerPickFiles": {
    "message": "選擇 ZIP 壓縮檔"
  },
  "IndexerTitle": {
    "message": "建立站台索引"
  },
  "IndexerTreeSearchLinkTitle": {
    "message": "搜尋"
  },
  "IndexerTreeSearchStart": {
    "message": "查"
  },
  "IndexerTreeSearchTitle": {
    "message": "$BOOK$ :: 搜尋",
    "placeholders": {
      "book": {
        "content": "$1"
      }
    }
  },
  "IndexerTreeSearchViewInMap": {
    "message": "在索引頁中檢視"
  },
  "IndexerTreeSourceLinkTitle": {
    "message": "來源連結"
  },
  "IndexerTreeToggleAll": {
    "message": "全部展開或收合"
  },
  "OK": {
    "message": "確定"
  },
  "OpenIndexer": {
    "message": "建立站台索引"
  },
  "OpenOptions": {
    "message": "選項"
  },
  "OpenScrapBook": {
    "message": "開啟剪貼簿"
  },
  "OpenScrapBookTooltip": {
    "message": "本功能需要架設後端伺服器並做好相關設定才能運作。"
  },
  "OpenViewer": {
    "message": "檢視封存網頁"
  },
  "OptionCaptureAppletLabel": {
    "message": "APPLET 元素:"
  },
  "OptionCaptureAppletTooltip": {
    "message": "此選項決定 APPLET 元素的處理方式。APPLET 元素是用於嵌入 JAVA 小程式，新瀏覽器大多已不再支援。注意：JAVA 小程式脫離原伺服器環境可能無法正常運作，且可能造成安全風險。\n\n* 儲存：將 APPLET 元素參照的檔案儲存至本地。\n\n* 連結：將 APPLET 元素連往原始位址。注意這會導致瀏覽擷取頁面時觸發網路傳輸。\n\n* 清空：將 APPLET 元素無效化。\n\n* 移除：將 APPLET 元素移除。注意這可能會影響網頁排版。"
  },
  "OptionCaptureAudioLabel": {
    "message": "音訊:"
  },
  "OptionCaptureAudioTooltip": {
    "message": "此選項決定音訊（AUDIO 元素）的處理方式。\n\n* 儲存：將音訊儲存至本地。\n\n* 儲存現用：將目前播放的音訊儲存至本地，忽略供其他瀏覽器使用的備用音訊。這可以有效縮小容量，但在其他平台可能無法播放。若擷取的頁面並未顯示於瀏覽器（例如擷取原貌），則仍儲存所有音訊。\n\n* 連結：將音訊元素連往原始位址。注意這會導致瀏覽擷取頁面時觸發網路傳輸。\n\n* 清空：將音訊無效化。\n\n* 移除：將音訊元素移除。注意這可能會影響網頁排版。"
  },
  "OptionCaptureAutoCloseDialogLabel": {
    "message": "擷取成功時自動關閉對話視窗"
  },
  "OptionCaptureCanvasBlankLabel": {
    "message": "儲存初始狀態"
  },
  "OptionCaptureCanvasLabel": {
    "message": "畫布:"
  },
  "OptionCaptureCanvasSaveLabel": {
    "message": "儲存目前狀態"
  },
  "OptionCaptureCanvasTooltip": {
    "message": "此選項決定畫布（CANVAS 元素）的處理方式。畫布初始為空白狀態而後由網頁腳本動態繪製。\n\n* 儲存目前狀態：記錄畫布的目前狀態並產生相應的初始化腳本，在網頁載入時重繪。注意：使用某些特殊技術繪製的畫布無法如實記錄目前狀態。\n\n* 儲存原始狀態：儲存空白畫布。\n\n* 移除：將畫布元素移除。"
  },
  "OptionCaptureCommonBlankLabel": {
    "message": "清空"
  },
  "OptionCaptureCommonLinkLabel": {
    "message": "連結"
  },
  "OptionCaptureCommonRemoveLabel": {
    "message": "移除"
  },
  "OptionCaptureCommonSaveCurrentLabel": {
    "message": "儲存現用"
  },
  "OptionCaptureCommonSaveLabel": {
    "message": "儲存"
  },
  "OptionCaptureCommonSaveUsedLabel": {
    "message": "儲存使用"
  },
  "OptionCaptureDownLinkExtFilterError": {
    "message": "以下副檔名過濾器的正規表示式語法有誤，執行時會略過它們，要停下來修正嗎？\n\n$LINES$",
    "placeholders": {
      "lines": {
        "content": "$1"
      }
    }
  },
  "OptionCaptureDownLinkExtFilterLabel": {
    "message": "副檔名過濾器:"
  },
  "OptionCaptureDownLinkExtFilterTooltip": {
    "message": "此過濾器根據副檔名篩選要下載的連結。\n\n* 以下每行為一個以 \",\" 分隔的副檔名列表（不分大小寫，可含空白，如 \"jpg, jpeg\"）或一個正規表示式（如 \"/jpe?g|gif|png/i\"）。\n\n* 取全副檔名比對，例如 .doc 不視為符合規則 \"docx\"。\n\n* 符合任何一行的規則即列入下載。\n\n* 以 \"#\" 開頭的行皆視為註解，執行時會略過。"
  },
  "OptionCaptureDownLinkFilterErrorLine": {
    "message": "第 $LINE$ 行：$ERROR$",
    "placeholders": {
      "line": {
        "content": "$1"
      },
      "error": {
        "content": "$2"
      }
    }
  },
  "OptionCaptureDownLinkModeHeaderLabel": {
    "message": "比對 HTTP 標頭及網址副檔名"
  },
  "OptionCaptureDownLinkModeNoneLabel": {
    "message": "停用下載連結檔案"
  },
  "OptionCaptureDownLinkModeTooltip": {
    "message": "此選項決定是否下載超連結（A 或 AREA 元素）指向的內容。\n\n* 停用下載連結檔案：不下載連結的檔案。\n\n* 比對網址副檔名：比對網址副檔名決定是否下載，效能較佳，但無法有效區分動態網頁的類型。例如副檔名為 .php 的網址可能輸出 html、doc、pdf 或其他格式，但此模式下都是取 php 做比對。\n\n* 比對 HTTP 標頭及網址副檔名：走訪每個連結取得 HTTP 標頭及實際輸出的副檔名，據此決定是否下載。注意：有些網站會把操作指令做成一般的超連結，導致走訪連結時誤觸指令（例如登出網站），此時可設定網址過濾器防止走訪。"
  },
  "OptionCaptureDownLinkModeUrlLabel": {
    "message": "比對網址副檔名"
  },
  "OptionCaptureDownLinkUrlFilterError": {
    "message": "以下網址過濾器的正規表示式語法有誤，執行時會略過它們，要停下來修正嗎？\n\n$LINES$",
    "placeholders": {
      "lines": {
        "content": "$1"
      }
    }
  },
  "OptionCaptureDownLinkUrlFilterLabel": {
    "message": "網址過濾器:"
  },
  "OptionCaptureDownLinkUrlFilterTooltip": {
    "message": "此過濾器根據完整網址（去除 \"#\" 以後的部分）篩選禁止下載的連結，優先於其他過濾器。\n\n* 以下每行為一個完整網址（\"#\" 以後的部分會自動去除）或一個正規表示式（如 \"/[/=]logout\\b/i\"）。\n\n* 符合任何一行的規則即禁止下載。\n\n* 以 \"#\" 開頭的行皆視為註解，執行時會略過。"
  },
  "OptionCaptureEmbedLabel": {
    "message": "EMBED 元素:"
  },
  "OptionCaptureEmbedTooltip": {
    "message": "此選項決定 EMBED 元素的處理方式。EMBED 元素多用於嵌入外掛程式，也可嵌入圖片、多媒體、或框架頁。注意：外掛程式脫離原伺服器環境可能無法正常運作，且可能造成安全風險。\n\n* 儲存：將 EMBED 元素參照的檔案儲存至本地。\n\n* 連結：將 EMBED 元素連往原始位址。注意這會導致瀏覽擷取頁面時觸發網路傳輸。\n\n* 清空：將 EMBED 元素無效化。\n\n* 移除：將 EMBED 元素移除。注意這可能會影響網頁排版。"
  },
  "OptionCaptureFaviconLabel": {
    "message": "最愛圖示:"
  },
  "OptionCaptureFaviconTooltip": {
    "message": "此選項決定最愛圖示的處理方式。最愛圖示（favicon）是網頁在分頁、書籤、我的最愛中呈現的代表圖示。\n\n* 儲存：將最愛圖示儲存至本地。\n\n* 連結：將最愛圖示連往原始位址。注意這會導致瀏覽擷取頁面時觸發網路傳輸。\n\n* 清空：將最愛圖示無效化。\n\n* 移除：將最愛圖示元素移除。"
  },
  "OptionCaptureFontLabel": {
    "message": "字體:"
  },
  "OptionCaptureFontTooltip": {
    "message": "此選項決定字體的處理方式。\n\n* 儲存：將所有字體儲存至本地。\n\n* 儲存使用：只將擷取區域的網頁元素使用的字體儲存至本地。若擷取的頁面並未顯示於瀏覽器（例如擷取原貌），則仍儲存所有字體。\n\n* 連結：將字體連往原始位址。注意這會導致瀏覽擷取頁面時觸發網路傳輸。注意：跨網域載入字體受同源政策限制，若字體來自未設定跨來源資源共享（CORS）的伺服器，擷取的頁面將無法載入。\n\n* 清空：將字體從樣式表中清除。"
  },
  "OptionCaptureFormStatusKeepLabel": {
    "message": "保留"
  },
  "OptionCaptureFormStatusLabel": {
    "message": "表單狀態:"
  },
  "OptionCaptureFormStatusResetLabel": {
    "message": "重設"
  },
  "OptionCaptureFrameLabel": {
    "message": "框架頁:"
  },
  "OptionCaptureFrameTooltip": {
    "message": "此選項決定框架頁（FRAME 及 IFRAME 元素）的處理方式。\n\n* 儲存：將框架頁儲存至本地。\n\n* 連結：將框架頁連往原始位址。注意這會導致瀏覽擷取頁面時觸發網路傳輸。\n\n* 清空：將框架頁無效化。\n\n* 移除：將框架頁元素移除。注意這可能會影響網頁排版。"
  },
  "OptionCaptureImageBackgroundLabel": {
    "message": "樣式圖片:"
  },
  "OptionCaptureImageBackgroundTooltip": {
    "message": "此選項決定樣式圖片（包括樣式表使用的背景圖片、滑鼠指標圖示、項目符號圖示等，以及舊 HTML 標準的元素背景屬性）的處理方式。\n\n* 儲存：將所有樣式圖片儲存至本地。\n\n* 儲存使用：只將擷取區域的網頁元素使用的樣式圖片儲存至本地。若擷取的頁面並未顯示於瀏覽器（例如擷取原貌），則仍儲存所有樣式圖片。\n\n* 連結：將樣式圖片連往原始位址。注意這會導致瀏覽擷取頁面時觸發網路傳輸。\n\n* 清空：將樣式圖片從樣式表中清除。"
  },
  "OptionCaptureImageLabel": {
    "message": "圖片:"
  },
  "OptionCaptureImageTooltip": {
    "message": "此選項決定圖片（IMG、PICTURE、及一些 INPUT 元素）的處理方式。\n\n* 儲存：將圖片儲存至本地。\n\n* 儲存現用：將顯示的圖片儲存至本地，忽略其他螢幕大小或解析度的備用圖片。這可以有效縮小容量，但某些情況下顯示效果會變差。若擷取的頁面並未顯示於瀏覽器（例如擷取原貌），則仍儲存所有圖片。\n\n* 連結：將圖片連往原始位址。注意這會導致瀏覽擷取頁面時觸發網路傳輸。\n\n* 清空：將圖片無效化。\n\n* 移除：將圖片元素移除。注意這可能會影響網頁排版。"
  },
  "OptionCaptureMergeCssResourcesLabel": {
    "message": "合併樣式表重複引用的媒體"
  },
  "OptionCaptureMergeCssResourcesTooltip": {
    "message": "以變數替換樣式表重複引用的媒體資源，可顯著縮小容量。此功能只有較新的瀏覽器支援，例如 Chromium ≥ 49、Firefox ≥ 31、Edge ≥ 15、Safari > 9.1、Opera ≥ 36，其他瀏覽器將無法呈現相關資源。"
  },
  "OptionCaptureObjectLabel": {
    "message": "OBJECT 元素:"
  },
  "OptionCaptureObjectTooltip": {
    "message": "此選項決定 OBJECT 元素的處理方式。OBJECT 元素多用於嵌入外掛程式，也可嵌入圖片、多媒體、或框架頁。注意：外掛程式脫離原伺服器環境可能無法正常運作，且可能造成安全風險。\n\n* 儲存：將 OBJECT 元素參照的檔案儲存至本地。\n\n* 連結：將 OBJECT 元素連往原始位址。注意這會導致瀏覽擷取頁面時觸發網路傳輸。\n\n* 清空：將 OBJECT 元素無效化。\n\n* 移除：將 OBJECT 元素移除。注意這可能會影響網頁排版。"
  },
  "OptionCapturePageSizeLimitLabel": {
    "message": "單個頁面的大小限制:"
  },
  "OptionCapturePageSizeLimitTooltip": {
    "message": "系統不會擷取超出此限制的頁面。空白表示不設限制。"
  },
  "OptionCapturePrecludeSelectorError": {
    "message": "預先排除選擇器語法有誤，執行時將無作用，要停下來修正嗎？"
  },
  "OptionCapturePrecludeSelectorLabel": {
    "message": "預先排除的元素:"
  },
  "OptionCapturePrecludeSelectorTooltip": {
    "message": "可用此 CSS 選擇器在擷取前預先移除一些網頁元素，例如其他瀏覽器擴充套件插入的內容。"
  },
  "OptionCaptureRecordErrorUriLabel": {
    "message": "記錄錯誤的 URL"
  },
  "OptionCaptureRecordErrorUriTooltip": {
    "message": "擷取網頁時若有 URL 無法順利連上，會以 urn:scrapbook:* 的形式記錄。若不勾選則會連結至原始位址（可能仍無法連上而導致無效連線）。"
  },
  "OptionCaptureRecordRemovedNodeLabel": {
    "message": "記錄移除的元素"
  },
  "OptionCaptureRecordRemovedNodeTooltip": {
    "message": "擷取網頁時若有移除元素，則在原位置建立 HTML 註解記錄原始內容。"
  },
  "OptionCaptureRecordRewrittenAttrLabel": {
    "message": "記錄改寫的屬性"
  },
  "OptionCaptureRecordRewrittenAttrTooltip": {
    "message": "擷取網頁時若有改寫元素的屬性，則建立對應的 data-* 屬性記錄原始值。"
  },
  "OptionCaptureRecordSourceUriLabel": {
    "message": "記錄原始的 URL"
  },
  "OptionCaptureRecordSourceUriTooltip": {
    "message": "擷取網頁時若有改寫元素或樣式表的超連結，則建立註解或 data-* 屬性記錄原始 URL 位址。"
  },
  "OptionCaptureRemoveHiddenLabel": {
    "message": "移除隱藏元素"
  },
  "OptionCaptureRemoveHiddenNoneLabel": {
    "message": "停用"
  },
  "OptionCaptureRemoveHiddenTooltip": {
    "message": "此選項決定隱藏元素的處理方式。\n\n* 停用：停用此功能。\n\n* 移除不顯示的元素：移除「display」樣式屬性計算值為「none」的元素。注意這可能會影響網頁排版，例如改變「+」、「~」、「:nth-child」等 CSS 選擇器的作用對象。"
  },
  "OptionCaptureRemoveHiddenUndisplayedLabel": {
    "message": "移除不顯示的元素"
  },
  "OptionCaptureResourceSizeLimitLabel": {
    "message": "單個資源檔案的大小限制:"
  },
  "OptionCaptureResourceSizeLimitTooltip": {
    "message": "系統不會下載超出此限制的資源檔案。空白表示不設限制。"
  },
  "OptionCaptureRewriteCssLabel": {
    "message": "改寫樣式表:"
  },
  "OptionCaptureRewriteCssNoneLabel": {
    "message": "不改寫"
  },
  "OptionCaptureRewriteUrlLabel": {
    "message": "改寫 URL"
  },
  "OptionCaptureSaveAsFolderLabel": {
    "message": "資料夾"
  },
  "OptionCaptureSaveAsLabel": {
    "message": "儲存擷取資料為:"
  },
  "OptionCaptureSaveAsMaffLabel": {
    "message": "MAFF 封存檔"
  },
  "OptionCaptureSaveAsSingleHtmlLabel": {
    "message": "單一 HTML 檔案"
  },
  "OptionCaptureSaveAsTooltip": {
    "message": "指定儲存網頁及參照檔案的格式。\n\n* 資料夾：建立一個資料夾並將網頁及資源檔案存入其中。Chromium 系瀏覽器注意： 儲存擷取資料至剪貼簿資料夾時，建議瀏覽器設定取消勾選「下載每個檔案前先詢問儲存位置」，以免擷取時跳出大量下載視窗；特定格式的檔案（如 .js）會被瀏覽器封鎖，須逐個選擇「保留」才能下載。\n\n* HTZ 及 MAFF 封存檔：用 ZIP 演算法將網頁及資源檔案打包，可用「檢視封存網頁」功能檢視，或用支援 ZIP 的工具解壓縮後檢視。\n\n* 單一 HTML 檔案：儲存為一個 HTML 檔案，資源檔案以 data URL 等技術嵌入，大部分現代瀏覽器皆能支援，例如 Chromium > 0、Firefox > 0、Edge > 0、Safari > 0、Opera ≥ 7.2、IE ≥ 8（IE 有更多限制）。注意：data URL 效能較差，且缺乏有效的去重複技術，可能使檔案容量明顯增加。"
  },
  "OptionCaptureSaveAsZipLabel": {
    "message": "HTZ 封存檔"
  },
  "OptionCaptureSaveAsciiFilenameLabel": {
    "message": "儲存為 ASCII 檔名"
  },
  "OptionCaptureSaveAsciiFilenameTooltip": {
    "message": "檔名中所有非 ASCII 字元會以編碼形式儲存。"
  },
  "OptionCaptureSaveDataUriAsFileLabel": {
    "message": "將 data URL 儲存為檔案"
  },
  "OptionCaptureSaveDataUriAsFileTooltip": {
    "message": "會自動根據 data URL 資料的 MIME 類型及內容的 SHA-1 雜湊值產生適當的檔名。原始檔名會以特殊屬性儲存在 data URL 中。"
  },
  "OptionCaptureSaveFileAsHtmlLabel": {
    "message": "將檔案儲存為 HTML"
  },
  "OptionCaptureSaveFileAsHtmlTooltip": {
    "message": "將瀏覽器能檢視的非 HTML 檔案儲存為 HTML 網頁。"
  },
  "OptionCaptureSaveFilenameLabel": {
    "message": "儲存檔名:"
  },
  "OptionCaptureSaveFilenameTooltip": {
    "message": "指定擷取資料的儲存檔名（不含副檔名），可用以下模版語法帶入參數：\n* %% - 帶入「%」符號。\n* %ID% - 擷取資料的唯一識別碼，如「20190301124533216」。\n* %ID_0% - 傳統 ScrapBook 格式的識別碼，如「20190301204533」。\n* %UUID% - 產生一個亂數 UUID，如「941e4674-d6c7-4709-9703-a1b4359286c6」。\n* %TITLE% - 頁面標題，若無頁面標題，會取網址最後一節作為標題。\n* %HOST% - 資料來源網域，如「example.com」。\n* %PAGE% - 網址最後一節，並去除副檔名。\n* %FILE% - 網址最後一節。\n* %DATE% - 現在日期，格式為 YYYY-MM-DD。\n* %TIME% - 現在時間，格式為 HH-MM-SS。\n* %YEAR% - 現在年份，格式為 YYYY。\n* %MONTH% - 現在月份，格式為 MM。\n* %DAY% - 現在月份中的日數，格式為 DD。\n* %HOURS% - 現在小時數，格式為 HH。\n* %MINUTES% - 現在分鐘數，格式為 MM。\n* %SECONDS% - 現在秒數，格式為 SS。\n* 時間參數皆可在後面加上「_UTC」使用世界協調時間，例如 %TIME_UTC%、%HOURS_UTC%。\n* 可用斜線「/」指定子資料夾，例如「%YEAR%/%MONTH%/%TITLE%」。"
  },
  "OptionCaptureSaveToFileLabel": {
    "message": "檔案"
  },
  "OptionCaptureSaveToFolderLabel": {
    "message": "剪貼簿資料夾"
  },
  "OptionCaptureSaveToLabel": {
    "message": "儲存擷取資料至:"
  },
  "OptionCaptureSaveToServerLabel": {
    "message": "後端伺服器"
  },
  "OptionCaptureSaveToTooltip": {
    "message": "指定管理儲存資料的方式。\n\n* 後端伺服器：將擷取頁面儲存於後端伺服器設定的剪貼簿資料目錄。\n\n* 剪貼簿資料夾：將擷取頁面儲存於 <預設下載資料夾> 下的剪貼簿資料夾。\n\n* 檔案：將擷取頁面儲存成檔案。"
  },
  "OptionCaptureScrapbookFolderLabel": {
    "message": "剪貼簿資料夾:"
  },
  "OptionCaptureScrapbookFolderTooltip": {
    "message": "指定儲存剪貼簿資料的頂層資料夾，為 <預設下載資料夾> 以下的路徑，例如「WebScrapBook/data」。\n\n* 瀏覽器擴充套件被限制只能下載檔案到 <預設下載資料夾>，如有需要可在 <預設下載資料夾> 下建立符號連結（或 Windows 系統的目錄連接）指向想要的資料夾。\n\n* 注意：為向下相容，索引器只支援對含有「data」子資料夾的剪貼簿資料夾建立索引。若使用其他資料架構，須搭配後端伺服器才能使用索引器。"
  },
  "OptionCaptureScriptLabel": {
    "message": "腳本:"
  },
  "OptionCaptureScriptTooltip": {
    "message": "此選項決定所有網頁腳本（包括 SCRIPT 元素、javascript: 協定的超連結、onclick 之類的動態屬性等等）的處理方式。\n\n* 儲存：將腳本儲存至本地。注意：擷取的頁面由於脫離了原伺服器環境且改寫了部分內容，儲存的腳本可能無法正常執行；此外基於安全性考量，腳本也無法在封存網頁檢視器中執行。一般建議將各擷取選項設為「儲存」並將「畫布」設為「儲存初始狀態」、將「影子元素」設為「移除」，以避免腳本衝突出錯。\n\n* 連結：將腳本連往原始位址。注意這會導致瀏覽擷取頁面時觸發網路傳輸。\n\n* 清空：將腳本無效化。\n\n* 移除：將腳本元素移除。注意在少數情況下這可能會影響網頁排版。"
  },
  "OptionCaptureShadowDomLabel": {
    "message": "影子物件:"
  },
  "OptionCaptureShadowDomTooltip": {
    "message": "此選項決定影子物件（Shadow DOM）的處理方式。影子物件是依附於頁面元素的另一套物件，由頁面腳本動態產生。\n\n* 儲存：將影子物件記錄於特殊屬性，並產生相應的初始化腳本，在網頁載入時重建影子物件。\n\n* 移除：不記錄影子物件。"
  },
  "OptionCaptureStyleLabel": {
    "message": "樣式:"
  },
  "OptionCaptureStyleTooltip": {
    "message": "此選項決定樣式表（包括外部樣式表——一些 LINK 元素——及內部樣式表——STYLE 元素）的處理方式。\n\n* 儲存：將外部樣式表儲存至本地。\n\n* 連結：將外部樣式表連往原始位址。注意這會導致瀏覽擷取頁面時觸發網路傳輸。\n\n* 清空：將樣式表無效化。\n\n* 移除：將樣式表元素移除。注意在少數情況下這可能會影響網頁排版。"
  },
  "OptionCaptureVideoLabel": {
    "message": "視訊:"
  },
  "OptionCaptureVideoTooltip": {
    "message": "此選項決定視訊（VIDEO 元素）的處理方式。\n\n* 儲存：將視訊儲存至本地。\n\n* 儲存現用：將播放的視訊儲存至本地，忽略供其他瀏覽器使用的備用視訊。這可以縮小容量，但在其他平台可能無法播放。若擷取的頁面並未顯示於瀏覽器（例如擷取原貌），則仍儲存所有視訊。\n\n* 連結：將視訊連往原始位址。注意這會導致瀏覽擷取頁面時觸發網路傳輸。\n\n* 清空：將視訊無效化。\n\n* 移除：將視訊元素移除。注意這可能會影響網頁排版。"
  },
  "OptionEditorAutoInit": {
    "message": "瀏覽剪貼簿中的頁面時，自動載入編輯工具列"
  },
  "OptionGroupCapture": {
    "message": "擷取 - 內容"
  },
  "OptionGroupDownLink": {
    "message": "擷取 - 下載連結檔案"
  },
  "OptionGroupEditor": {
    "message": "編輯器"
  },
  "OptionGroupIndexer": {
    "message": "索引器"
  },
  "OptionGroupMetadata": {
    "message": "擷取 - 元資料"
  },
  "OptionGroupSave": {
    "message": "擷取 - 儲存"
  },
  "OptionGroupServer": {
    "message": "後端伺服器"
  },
  "OptionGroupViewer": {
    "message": "檢視器"
  },
  "OptionIndexerFulltextCacheFrameAsPageContentLabel": {
    "message": "將框架頁內容快取為主頁內容"
  },
  "OptionIndexerFulltextCacheLabel": {
    "message": "更新全文搜尋快取"
  },
  "OptionPageTitle": {
    "message": "選項設定"
  },
  "OptionServerPasswordLabel": {
    "message": "密碼:"
  },
  "OptionServerUrlLabel": {
    "message": "網址:"
  },
  "OptionServerUrlTooltip": {
    "message": "後端伺服器程式的根目錄，例如「http://localhost:8080/」或「https://example.com/wsb/」。\n\n* 後端伺服器可用 PyWebScrapBook 套件（相容版本：$BACKEND_VERSION$）架設，安裝細節參見 https://pypi.org/project/webscrapbook/。",
    "placeholders": {
      "backend_version": {
        "content": "$1"
      }
    }
  },
  "OptionServerUserLabel": {
    "message": "使用者:"
  },
  "OptionViewerUseFileSystemApiLabel": {
    "message": "使用 Filesystem API"
  },
  "OptionViewerUseFileSystemApiTooltip": {
    "message": "在支援的瀏覽器上使用 filesystem API 建立虛擬檔案系統檢視封存檔案，有較佳的效能及保真性。"
  },
  "OptionViewerViewHtzLabel": {
    "message": "檢視 HTZ 檔案"
  },
  "OptionViewerViewHtzTooltip": {
    "message": "瀏覽器載入 HTZ 檔案時，自動以檢視器檢視。在支援的瀏覽器勾選「允許存取檔案網址」即可用瀏覽器直接開啟此類檔案。"
  },
  "OptionViewerViewMaffLabel": {
    "message": "檢視 MAFF 檔案"
  },
  "OptionViewerViewMaffTooltip": {
    "message": "瀏覽器載入 MAFF 檔案時，自動以檢視器檢視。在支援的瀏覽器勾選「允許存取檔案網址」即可用瀏覽器直接開啟此類檔案。"
  },
  "OptionsExportLabel": {
    "message": "匯出"
  },
  "OptionsImportLabel": {
    "message": "匯入"
  },
  "OptionsImportSuccess": {
    "message": "匯入選項成功"
  },
  "OptionsResetLabel": {
    "message": "重設"
  },
  "OptionsSaveLabel": {
    "message": "儲存"
  },
  "ScrapBookBookRefresh": {
    "message": "<重新整理>"
  },
  "ScrapBookCommandBrowse": {
    "message": "在檔案管理員檢視"
  },
  "ScrapBookCommandCreateNote": {
    "message": "新增筆記"
  },
  "ScrapBookCommandCreateNoteDialogTitle": {
    "message": "新筆記的格式:"
  },
  "ScrapBookCommandCreateSeparator": {
    "message": "新增分隔線"
  },
  "ScrapBookCommandCreatefolder": {
    "message": "新增資料夾"
  },
  "ScrapBookCommandDelete": {
    "message": "刪除"
  },
  "ScrapBookCommandEdit": {
    "message": "編輯"
  },
  "ScrapBookCommandEditx": {
    "message": "編輯頁面"
  },
  "ScrapBookCommandExec": {
    "message": "用預設程式開啟"
  },
  "ScrapBookCommandExecBook": {
    "message": "在檔案管理員檢視主目錄"
  },
  "ScrapBookCommandIndex": {
    "message": "檢視主頁"
  },
  "ScrapBookCommandManage": {
    "message": "管理"
  },
  "ScrapBookCommandMeta": {
    "message": "元資料"
  },
  "ScrapBookCommandMetaDialogCharset": {
    "message": "字集:"
  },
  "ScrapBookCommandMetaDialogComment": {
    "message": "註解:"
  },
  "ScrapBookCommandMetaDialogCreate": {
    "message": "建立時間:"
  },
  "ScrapBookCommandMetaDialogIcon": {
    "message": "圖示:"
  },
  "ScrapBookCommandMetaDialogId": {
    "message": "ID:"
  },
  "ScrapBookCommandMetaDialogIndex": {
    "message": "索引檔:"
  },
  "ScrapBookCommandMetaDialogModify": {
    "message": "修改時間:"
  },
  "ScrapBookCommandMetaDialogSource": {
    "message": "來源:"
  },
  "ScrapBookCommandMetaDialogTitle": {
    "message": "標題:"
  },
  "ScrapBookCommandMetaDialogType": {
    "message": "類型:"
  },
  "ScrapBookCommandMoveDialogIndex": {
    "message": "位置 (從 0 開始，空白則移至最後):"
  },
  "ScrapBookCommandMoveDialogMode": {
    "message": "模式:"
  },
  "ScrapBookCommandMoveDialogModeLink": {
    "message": "連結"
  },
  "ScrapBookCommandMoveDialogModeMove": {
    "message": "移動"
  },
  "ScrapBookCommandMoveDialogTitle": {
    "message": "移動到這個 ID 的項目下:"
  },
  "ScrapBookCommandMoveDown": {
    "message": "下移"
  },
  "ScrapBookCommandMoveTo": {
    "message": "移動至"
  },
  "ScrapBookCommandMoveUp": {
    "message": "上移"
  },
  "ScrapBookCommandOpen": {
    "message": "開啟"
  },
  "ScrapBookCommandOpenTab": {
    "message": "開啟於新分頁"
  },
  "ScrapBookCommandRecycle": {
    "message": "移除"
  },
  "ScrapBookCommandSearch": {
    "message": "搜尋"
  },
  "ScrapBookCommandSource": {
    "message": "開啟原始網址"
  },
  "ScrapBookCommandUpload": {
    "message": "上傳檔案"
  },
  "ScrapBookCommandViewRecycle": {
    "message": "檢視回收筒"
  },
  "ScrapBookErrorBookNotExist": {
    "message": "剪貼簿 $NAME$ 不存在，重設為預設剪貼簿",
    "placeholders": {
      "name": {
        "content": "$1"
      }
    }
  },
  "ScrapBookErrorInitTree": {
    "message": "無法初始化目錄樹: $REASON$",
    "placeholders": {
      "reason": {
        "content": "$1"
      }
    }
  },
  "ScrapBookErrorLoadBooks": {
    "message": "無法載入剪貼簿: $REASON$",
    "placeholders": {
      "reason": {
        "content": "$1"
      }
    }
  },
  "ScrapBookErrorServerInit": {
    "message": "後端伺服器初始化錯誤: $REASON$",
    "placeholders": {
      "reason": {
        "content": "$1"
      }
    }
  },
  "ScrapBookErrorServerNotConfigured": {
    "message": "未設定後端伺服器。"
  },
  "ScrapBookErrorServerTreeChanged": {
    "message": "伺服器的目錄樹資料已變更，請重新整理此頁面再嘗試。"
  },
  "ScrapBookNewFolderName": {
    "description": "Default name of a new folder",
    "message": "新資料夾"
  },
  "ScrapBookNewNoteName": {
    "description": "Default name of a new note",
    "message": "新筆記"
  },
  "ViewerDesc": {
    "message": "選擇 HTZ 或 MAFF 封存檔以開啟之。你可以拖放它們至此視窗，或使用以下按鈕："
  },
  "ViewerPickFiles": {
    "message": "選擇 ZIP 壓縮檔"
  },
  "ViewerTitle": {
    "message": "檢視封存頁面"
  },
  "WarnCaptureCircular": {
    "message": "資源 '$SOURCE$' 循環參照至 '$TARGET$'，由於目前的擷取設定不支援循環參照，參照目標將轉向至空值。",
    "placeholders": {
      "source": {
        "content": "$1"
      },
      "target": {
        "content": "$2"
      }
    }
  },
  "WarnPageSizeLimitExceeded": {
    "message": "略過超出大小限制的頁面: '$SOURCE$'",
    "placeholders": {
      "source": {
        "content": "$1"
      }
    }
  },
  "WarnResourceSizeLimitExceeded": {
    "message": "略過超出大小限制的資源: '$SOURCE$'",
    "placeholders": {
      "source": {
        "content": "$1"
      }
    }
  }
}